{
  "files": {
    "main.css": "/static/css/main.f855e6bc.css",
    "main.js": "/static/js/main.4df159bf.js",
    "index.html": "/index.html",
    "main.f855e6bc.css.map": "/static/css/main.f855e6bc.css.map",
    "main.4df159bf.js.map": "/static/js/main.4df159bf.js.map"
  },
  "entrypoints": [
    "static/css/main.f855e6bc.css",
    "static/js/main.4df159bf.js"
  ]
}